,N,compute_time,degrees_list,edges_number,mean_degree,nodes_number,param,variance_degree
0,2000.0,6.853927850723267,[36 37  4 ...  1  1  1],1999.0,1.999,2000.0,1.0,11.460999
1,2000.0,7.302236557006836,[294 313 297 ... 101 101 101],191799.0,191.799,2000.0,101.0,12915.755599000002
2,2000.0,6.9652180671691895,[380 452 469 ... 201 201 201],361599.0,361.599,2000.0,201.0,30177.074199000002
3,2000.0,6.719719886779785,[456 474 466 ... 301 301 301],511399.0,511.399,2000.0,301.0,45981.953799
4,2000.0,7.121203422546387,[506 566 497 ... 401 401 401],641199.0,641.199,2000.0,401.0,60523.258399
5,2000.0,7.320775508880615,[576 563 525 ... 502 501 501],750999.0,750.999,2000.0,501.0,75819.655999
6,2000.0,6.659037113189697,[575 603 555 ... 602 601 601],840799.0,840.799,2000.0,601.0,93305.709599
7,2000.0,6.7659592628479,[636 621 652 ... 702 701 701],910599.0,910.599,2000.0,701.0,114477.396199
8,2000.0,6.158985376358032,[605 629 605 ... 801 802 801],960399.0,960.399,2000.0,801.0,140698.498799
9,2000.0,6.13366436958313,[653 615 579 ... 901 901 901],990199.0,990.199,2000.0,901.0,169933.409399
10,2000.0,6.1183037757873535,[ 603  577  583 ... 1002 1001 1001],999999.0,999.999,2000.0,1001.0,202975.196999
